<?xml version="1.0"?>
<robot name="pelican_gazebo" xmlns:xacro="http://ros.org/wiki/xacro">

  <xacro:include filename="$(find asctec_quadrotor_description)/urdf/pelican.urdf.xacro" />
  <xacro:include filename="$(find asctec_quadrotor_gazebo)/urdf/plugins.gazebo.xacro" />

</robot>
